{
  "cluster_urls": {
    "devnet": "https://devnet.solana.com",
    "localnet": "http://127.0.0.1:8899",
    "mainnet-beta": "https://solana-api.projectserum.com",
    "testnet": "https://testnet.solana.com"
  },
  "devnet": {
    "dex_program_id": "DESVgJVGajEgKGXhb6XmqDHGz3VjdgP7rEVESBgxmroY",
    "faucets": {
      "BTC": "97z3NzcDxqRMyE7F73PuHEmAbA72S7eDopjhe7GTymTk",
      "ETH": "CvRouhBrimBuSyLd8zHxduNJDtV4LWtoowoF62FCwK7V",
      "MSRM": "9ysywkpvyvxaaezq2Dapj1p1gHPP3U3D3ccTTecVfYHe",
      "SRM": "9NzrM7CZ1jq46mX2JGcqyUxBupQEn614A5sZrvg3TrCU",
      "USDC": "",
      "USDT": "AS1EfwXvpejkkLrEPdz9J84By9kPvVBzYaD6Ks8ya1A6",
      "WUSDT": "DV8YAUHc4CiadQoFCHriTjNXbtwCw1Rt834EBYeCyvGt"
    },
    "fee_symbol": "SRM",
    "mango_groups": {
      "BTC_ETH_USDC": {
        "mango_group_pk": "C9ZtsC1wmqMzbyCUTeBppZSKH82FsKrGnaWjv5BtWvvo",
        "mint_pks": [
          "C6kYXcaRUMqeBF5fhg165RWU7AnpT9z92fvKNoMqjmz6",
          "8p968u9m7jZzKSsqxFDqki69MjqdFkwPM9FN4AN8hvHR",
          "Fq939Y5hycK62ZGwBjftLY2VyxqAQ8f1MxRqBMdAaBS7"
        ],
        "oracle_pks": [
          "3iQqi9nBREjVvKtVWd44Jcbvs39CDAe6zSd613QzxuPE",
          "5qxMJFJXB42j3kKo3FbTughREjziottXHcgLnjCNwjEs"
        ],
        "spot_market_pks": [
          "FKysSZkCCh41G1SCxpE7Cb7eaLofYBhEneLzHFz6JvjH",
          "BYz5dJegg11x94jS2R7ZTCgaJwimvupmkjeYDm9Y3UwP"
        ],
        "spot_market_symbols": {
          "BTC/USDC": "FKysSZkCCh41G1SCxpE7Cb7eaLofYBhEneLzHFz6JvjH",
          "ETH/USDC": "BYz5dJegg11x94jS2R7ZTCgaJwimvupmkjeYDm9Y3UwP"
        },
        "srm_vault_pk": "7YBghCMgSnvs3cg9taiwwKySiwDvby4USL3bmg8JQXF2",
        "symbols": {
          "BTC": "C6kYXcaRUMqeBF5fhg165RWU7AnpT9z92fvKNoMqjmz6",
          "ETH": "8p968u9m7jZzKSsqxFDqki69MjqdFkwPM9FN4AN8hvHR",
          "USDC": "Fq939Y5hycK62ZGwBjftLY2VyxqAQ8f1MxRqBMdAaBS7"
        },
        "vault_pks": [
          "Avpn6H3Tu2kJqCouYVpJgqU17iKRR9e2eEjVydQpPuyM",
          "GRPxtA2TdS8PaGK4E9utnFo7QGf4jLt7RRqbkQXR5fsU",
          "6gmXb2hRKeSRD1vvGwVtAVJSH8fBH7SitseyMnC3cat3"
        ]
      },
      "BTC_ETH_USDT": {
        "mango_group_pk": "H7T5VdS3x68VTFak9h34Q6qQzECeF9PcPL82qyfiUrcH",
        "mint_pks": [
          "C6kYXcaRUMqeBF5fhg165RWU7AnpT9z92fvKNoMqjmz6",
          "8p968u9m7jZzKSsqxFDqki69MjqdFkwPM9FN4AN8hvHR",
          "7KBVenLz5WNH4PA5MdGkJNpDDyNKnBQTwnz1UqJv9GUm"
        ],
        "oracle_pks": [
          "EHasrbBk5mFnTYPjmdNzDoa7cEBH3yN8D4DLJn7Q41hY",
          "3ynBi9nQyKoEJwC47cmXviLSgHaaXQBKRxukatYYLN1Y"
        ],
        "spot_market_pks": [
          "6Cpt7EYmzUcHLBQzZuYNqnyKQKieofZXw6bpCWtmwZM1",
          "4UQq7c8FdwGkb2TghHVgJShHMJwS4YzjvA3yiF6zArJD"
        ],
        "spot_market_symbols": {
          "BTC/USDT": "6Cpt7EYmzUcHLBQzZuYNqnyKQKieofZXw6bpCWtmwZM1",
          "ETH/USDT": "4UQq7c8FdwGkb2TghHVgJShHMJwS4YzjvA3yiF6zArJD"
        },
        "srm_vault_pk": "7Q85DzBw92oyXxQ5e5K2XnNHw9doRQaZKqvhxCef9uN8",
        "symbols": {
          "BTC": "C6kYXcaRUMqeBF5fhg165RWU7AnpT9z92fvKNoMqjmz6",
          "ETH": "8p968u9m7jZzKSsqxFDqki69MjqdFkwPM9FN4AN8hvHR",
          "USDT": "7KBVenLz5WNH4PA5MdGkJNpDDyNKnBQTwnz1UqJv9GUm"
        },
        "vault_pks": [
          "4ntkC6t3h75T5SWTKcgHHy9NQeengcydyn4NQtrb5aSZ",
          "6kdcJ3fTNmFRozBn3Yi6S9WgjzUPo6ZQg6LXQzomTjmj",
          "7LTGV36ixZBp3gPDowvFQx3HKdVgcLX3TDzGVeWsTiy8"
        ]
      },
      "BTC_ETH_WUSDT": {
        "mango_group_pk": "6WZGjqRi9XKgkqZdsYwit4ASVDQ1iiHqkiDvVgY1n2uW",
        "mint_pks": [
          "C6kYXcaRUMqeBF5fhg165RWU7AnpT9z92fvKNoMqjmz6",
          "8p968u9m7jZzKSsqxFDqki69MjqdFkwPM9FN4AN8hvHR",
          "7tSPGVhneTBWZjLGJGZb9V2UntC7T98cwtSLtgcXjeSs"
        ],
        "oracle_pks": [
          "EHasrbBk5mFnTYPjmdNzDoa7cEBH3yN8D4DLJn7Q41hY",
          "3ynBi9nQyKoEJwC47cmXviLSgHaaXQBKRxukatYYLN1Y"
        ],
        "spot_market_pks": [
          "ELXP9wTE4apvK9sxAqtCtMidbAvJJDrNVg4wL6jqQEBA",
          "97mbLfi4S56y5Vg2LCF4Z7ru8jD1QjHa5SH3eyFYrMdg"
        ],
        "spot_market_symbols": {
          "BTC/WUSDT": "ELXP9wTE4apvK9sxAqtCtMidbAvJJDrNVg4wL6jqQEBA",
          "ETH/WUSDT": "97mbLfi4S56y5Vg2LCF4Z7ru8jD1QjHa5SH3eyFYrMdg"
        },
        "srm_vault_pk": "3TgeEz19ycH7dH6FvR5rCjxD1sJzAq8Esj8BC98CaeEN",
        "symbols": {
          "BTC": "C6kYXcaRUMqeBF5fhg165RWU7AnpT9z92fvKNoMqjmz6",
          "ETH": "8p968u9m7jZzKSsqxFDqki69MjqdFkwPM9FN4AN8hvHR",
          "WUSDT": "7tSPGVhneTBWZjLGJGZb9V2UntC7T98cwtSLtgcXjeSs"
        },
        "vault_pks": [
          "Gf4Z19ygbzmBVSXcyvwZQPdrGs8k5TLPPSikU3hZzq8k",
          "5AUNwSv8hdwJVhUuaBtsFadtJQfiudSZcY6U9fNoRd2A",
          "41r2LvZZDECzm3sdxuP9AcyXZ9FPXqoTjbmnPfBG7ofn"
        ]
      }
    },
    "mango_program_id": "32YaLZeyUHhdFaGSemTncUEcZEEGjKart8NX1XG2k3fs",
    "oracles": {
      "BTC/USDC": "EHasrbBk5mFnTYPjmdNzDoa7cEBH3yN8D4DLJn7Q41hY",
      "BTC/USDT": "EHasrbBk5mFnTYPjmdNzDoa7cEBH3yN8D4DLJn7Q41hY",
      "BTC/WUSDT": "EHasrbBk5mFnTYPjmdNzDoa7cEBH3yN8D4DLJn7Q41hY",
      "ETH/USDC": "3ynBi9nQyKoEJwC47cmXviLSgHaaXQBKRxukatYYLN1Y",
      "ETH/USDT": "3ynBi9nQyKoEJwC47cmXviLSgHaaXQBKRxukatYYLN1Y",
      "ETH/WUSDT": "3ynBi9nQyKoEJwC47cmXviLSgHaaXQBKRxukatYYLN1Y"
    },
    "spot_markets": {
      "BTC/USDC": "FKysSZkCCh41G1SCxpE7Cb7eaLofYBhEneLzHFz6JvjH",
      "BTC/USDT": "6Cpt7EYmzUcHLBQzZuYNqnyKQKieofZXw6bpCWtmwZM1",
      "BTC/WUSDT": "ELXP9wTE4apvK9sxAqtCtMidbAvJJDrNVg4wL6jqQEBA",
      "ETH/USDC": "BYz5dJegg11x94jS2R7ZTCgaJwimvupmkjeYDm9Y3UwP",
      "ETH/USDT": "4UQq7c8FdwGkb2TghHVgJShHMJwS4YzjvA3yiF6zArJD",
      "ETH/WUSDT": "97mbLfi4S56y5Vg2LCF4Z7ru8jD1QjHa5SH3eyFYrMdg"
    },
    "symbols": {
      "BTC": "C6kYXcaRUMqeBF5fhg165RWU7AnpT9z92fvKNoMqjmz6",
      "ETH": "8p968u9m7jZzKSsqxFDqki69MjqdFkwPM9FN4AN8hvHR",
      "MSRM": "934bNdNw9QfE8dXD4mKQiKajYURfSkPhxfYZzpvmygca",
      "SRM": "9FbAMDvXqNjPqZSYt4EWTguJuDrGkfvwr3gSFpiSbX9S",
      "USDC": "Fq939Y5hycK62ZGwBjftLY2VyxqAQ8f1MxRqBMdAaBS7",
      "USDT": "7KBVenLz5WNH4PA5MdGkJNpDDyNKnBQTwnz1UqJv9GUm",
      "WUSDT": "7tSPGVhneTBWZjLGJGZb9V2UntC7T98cwtSLtgcXjeSs"
    }
  },
  "localnet": {
    "dex_program_id": "",
    "mango_groups": {
      "BTC_ETH_USDC": {}
    },
    "mango_program_id": "",
    "spot_markets": {
      "BTC_USDC": "",
      "ETH_USDC": ""
    },
    "symbols": {
      "BTC": "",
      "ETH": "",
      "USDC": ""
    }
  },
  "mainnet-beta": {
    "dex_program_id": "9xQeWvG816bUx9EPjHmaT23yvVM2ZWbrrpZb9PusVFin",
    "dex_program_id_v2": "EUqojwWA2rd19FZrzeBncJsm38Jm1hEhE3zsmX3bRc2o",
    "fee_token": "SRM",
    "mango_groups": {
      "BTC_ETH_USDT": {
        "mango_group_pk": "7pVYhpKUHw88neQHxgExSH6cerMZ1Axx1ALQP9sxtvQV",
        "mint_pks": [
          "9n4nbM75f5Ui33ZbPYXn59EwSgE8CGsHtAeTH5YFeJ9E",
          "2FPyTwcZLUg1MDrwsyoP4D6s1tM7hAkHYRjkNb5w6Pxk",
          "Es9vMFrzaCERmJfrF4H2FYD4KCoNkY11McCe8BenwNYB"
        ],
        "oracle_pks": [
          "HWh11EWkVHHZoRV6D6WzfRSna4yFv8ZvwcqDk74oDnSs",
          "AcYcDG74nxeFHxuqeD5RRWTMWKi77QVx7t9bEy8Y4eyN"
        ],
        "spot_market_pks": [
          "C1EuT9VokAKLiW7i2ASnZUvxDoKuKkCpDDeNxAptuNe4",
          "7dLVkUfBVfCGkFhSXDCq1ukM9usathSgS716t643iFGF"
        ],
        "spot_market_symbols": {
          "BTC/USDT": "C1EuT9VokAKLiW7i2ASnZUvxDoKuKkCpDDeNxAptuNe4",
          "ETH/USDT": "7dLVkUfBVfCGkFhSXDCq1ukM9usathSgS716t643iFGF"
        },
        "srm_vault_pk": "65D8BWH5Bx4jstkZAkc5a3CdYvZjUAehJde3TTUTruQY",
        "symbols": {
          "BTC": "9n4nbM75f5Ui33ZbPYXn59EwSgE8CGsHtAeTH5YFeJ9E",
          "ETH": "2FPyTwcZLUg1MDrwsyoP4D6s1tM7hAkHYRjkNb5w6Pxk",
          "USDT": "Es9vMFrzaCERmJfrF4H2FYD4KCoNkY11McCe8BenwNYB"
        },
        "vault_pks": [
          "9AWv6CMSUwppXV1VW8ueMvevtPsyDEPFjeJ7UYHhyxMk",
          "3AGLriXSkujXN3TT2HrmfdLhMR9ApoYSMdPUiuXW95Kn",
          "9UL2DZCskV2m7zFsA7h7igzEw4HMtTjRdQr2X6sTCn1i"
        ]
      },
      "BTC_ETH_WUSDT": {
        "mango_group_pk": "6NsLVpG2pdxn2rEFkmHHYjkY5QP5qG4RN1fRcSqDVxPC",
        "mint_pks": [
          "9n4nbM75f5Ui33ZbPYXn59EwSgE8CGsHtAeTH5YFeJ9E",
          "2FPyTwcZLUg1MDrwsyoP4D6s1tM7hAkHYRjkNb5w6Pxk",
          "BQcdHdAQW1hczDbBi9hiegXAR7A98Q9jx3X3iBBBDiq4"
        ],
        "oracle_pks": [
          "HWh11EWkVHHZoRV6D6WzfRSna4yFv8ZvwcqDk74oDnSs",
          "AcYcDG74nxeFHxuqeD5RRWTMWKi77QVx7t9bEy8Y4eyN"
        ],
        "spot_market_pks": [
          "5r8FfnbNYcQbS1m4CYmoHYGjBtu6bxfo6UJHNRfzPiYH",
          "71CtEComq2XdhGNbXBuYPmosAjMCPSedcgbNi5jDaGbR"
        ],
        "spot_market_symbols": {
          "BTC/WUSDT": "5r8FfnbNYcQbS1m4CYmoHYGjBtu6bxfo6UJHNRfzPiYH",
          "ETH/WUSDT": "71CtEComq2XdhGNbXBuYPmosAjMCPSedcgbNi5jDaGbR"
        },
        "srm_vault_pk": "Fn6VHzE2PkJBeJAtCd6T5PP4ni79SqAdnFozFewgh8i6",
        "symbols": {
          "BTC": "9n4nbM75f5Ui33ZbPYXn59EwSgE8CGsHtAeTH5YFeJ9E",
          "ETH": "2FPyTwcZLUg1MDrwsyoP4D6s1tM7hAkHYRjkNb5w6Pxk",
          "WUSDT": "BQcdHdAQW1hczDbBi9hiegXAR7A98Q9jx3X3iBBBDiq4"
        },
        "vault_pks": [
          "FF8h6eCSqoGQyuYmh3BzxdaTfomCBPrCctRq9Yo6nCcd",
          "GWwECYXmTUumcUsjbwdJDc9ws4KDWYBJ1GGmckZr2hTK",
          "BoGTDjtbEtK8HPCu2VPNJfA7bTLuVDPETDoHvztm6Mqe"
        ]
      }
    },
    "mango_program_id": "JD3bq9hGdy38PuWQ4h2YJpELmHVGPPfFSuFkpzAd9zfu",
    "oracles": {
      "BTC/USDT": "HWh11EWkVHHZoRV6D6WzfRSna4yFv8ZvwcqDk74oDnSs",
      "BTC/WUSDT": "HWh11EWkVHHZoRV6D6WzfRSna4yFv8ZvwcqDk74oDnSs",
      "ETH/USDT": "AcYcDG74nxeFHxuqeD5RRWTMWKi77QVx7t9bEy8Y4eyN",
      "ETH/WUSDT": "AcYcDG74nxeFHxuqeD5RRWTMWKi77QVx7t9bEy8Y4eyN"
    },
    "spot_markets": {
      "BTC/USDC": "CVfYa8RGXnuDBeGmniCcdkBwoLqVxh92xB1JqgRQx3F",
      "BTC/USDT": "C1EuT9VokAKLiW7i2ASnZUvxDoKuKkCpDDeNxAptuNe4",
      "BTC/WUSDT": "5r8FfnbNYcQbS1m4CYmoHYGjBtu6bxfo6UJHNRfzPiYH",
      "ETH/USDC": "H5uzEytiByuXt964KampmuNCurNDwkVVypkym75J2DQW",
      "ETH/USDT": "7dLVkUfBVfCGkFhSXDCq1ukM9usathSgS716t643iFGF",
      "ETH/WUSDT": "71CtEComq2XdhGNbXBuYPmosAjMCPSedcgbNi5jDaGbR",
      "SOL/USDT": "HWHvQhFmJB3NUcu1aihKmrKegfVxBEHzwVX6yZCKEsi1",
      "SOL/WUSDT": "7xLk17EQQ5KLDLDe44wCmupJKJjTGd8hs3eSVVhCx932",
      "SRM/USDC": "CDdR97S8y96v3To93aKvi3nCnjUrbuVSuumw8FLvbVeg"
    },
    "symbols": {
      "BTC": "9n4nbM75f5Ui33ZbPYXn59EwSgE8CGsHtAeTH5YFeJ9E",
      "ETH": "2FPyTwcZLUg1MDrwsyoP4D6s1tM7hAkHYRjkNb5w6Pxk",
      "MSRM": "MSRMcoVyrFxnSgo5uXwone5SKcGhT1KEJMFEkMEWf9L",
      "SRM": "SRMuApVNdxXokk5GT7XD5cUUgXMBCoAz2LHeuAoKWRt",
      "USDC": "EPjFWdd5AufqSSqeM2qN1xzybapC8G4wEGGkZwyTDt1v",
      "USDT": "Es9vMFrzaCERmJfrF4H2FYD4KCoNkY11McCe8BenwNYB",
      "WUSDT": "BQcdHdAQW1hczDbBi9hiegXAR7A98Q9jx3X3iBBBDiq4"
    }
  },
  "testnet": {
    "dex_program_id": "",
    "mango_groups": {
      "BTC_ETH_USDC": {}
    },
    "mango_program_id": "",
    "spot_markets": {
      "BTC_USDC": "",
      "ETH_USDC": ""
    },
    "symbols": {
      "BTC": "BahhjqQVqw3LELEVfyhHyEp7Db1TbFUNVrMiSsmTaBR2",
      "ETH": "Dw91oaC5UGxzSDGaFontF1JS3XoViQV3EaTAgdtRPprM",
      "USDC": "9q4p8UFxphSipGL3TGku8byTijgk4koTMwhBMV4QKvjw"
    }
  }
}
